!!! Opus 2 No. 6 - ai-composer - haydn
**kern	**kern	**kern	**kern
*staff4	*staff3	*staff2	*staff1
*Icello	*Iviola	*Iviolin	*Iviolin
*k[]	*k[]	*k[]	*k[]
*clefF4	*clefC3	*clefF	*clefF
8C	8E	8G	8r
8r	8r	8r	8C
=	=	=	=
8EE	8E	8E	8E
8r	8r	8r	8F
8C	8E	8c	8E
8r	8r	8r	8r
=	=	=	=
4C	4c	4c	4e
4r	4r	4r	4r
=	=	=	=
8C	8e	8g	4ee
8A	8f	8a	.
8F	8f	8f	8dd
8F	8f	8c	8f
=	=	=	=
8C	8e	8c	[12e
.	.	.	24r
8FF	8d	8A	8b
8DD	8d	8B	8g
=	=	=	=
8EE	4.r	8e	4e
8E	.	8g	.
8F	.	8g	4gg
8d	.	8a	.
=	=	=	=
4d	4B	4g	16g
.	.	.	16b-
.	.	.	16b
.	.	.	16g
4r	4r	4r	8dd
.	.	.	8g
=	=	=	=
8r	8r	8r	8g
8A	8cc	8ee	8ccc
8A	8cc	8cc	8ff
8A	8r	8r	8cc#
=	=	=	=
8F	8a	8f	8a
8r	8r	8r	8r
=	=	=	=
4e	4c	4c	16G#
.	.	.	16d
.	.	.	16A
.	.	.	16e
4E	4G	4e	16g
.	.	.	16c
.	.	.	16g
.	.	.	16e
=	=	=	=
4F	4F	4A	16A
.	.	.	16f
.	.	.	16f
.	.	.	16f
4F	4F	16r	16a
.	.	16c	16a
.	.	16c	16f
.	.	16c	16d
=	=	=	=
4FF#	4G	8F#	4d
.	.	8A	.
4GG	8F	8B	4g
.	8D	8F	.
=	=	=	=
4BB	8D	4F	4B
.	8G	.	.
2r	8F	4r	4A
.	8D	.	.
.	8F	8r	8B
.	8F	8G	8B
=	=	=	=
2r	8r	8r	8B
.	8F	8c	8A
.	8E	8c	8c
.	8d	8B	8f
=	=	=	=
4.r	4c	4c	8f
.	.	.	8e
.	8c	8c	8e
4.r	4.r	4.r	4e
.	.	.	16a
.	.	.	16g
=	=	=	=
16A	4.G	8c	8e
32F#	.	.	.
32B	.	.	.
32B	8g	8e	32d
.	.	.	32e
.	.	.	32f
.	.	.	32e
.	8F	8f	8d
8B	8B	8d	8g
=	=	=	=
8c	8c	[2g	[2g
8r	16c	.	.
.	16c	.	.
8d	8B	.	.
8e	8c	.	.
=	=	=	=
8d	8d	2r	2r
8c	8e	.	.
8d	8d	.	.
8c	8e	.	.
=	=	=	=
2G	8f	4.r	4r
.	8d	.	.
.	8G	.	.
4r	8e	.	16B
.	.	.	16f
.	8d	.	16f
.	.	.	16g
=	=	=	=
2r	8B	8f	8g
.	2r	2r	8r
.	.	.	16b
.	.	.	16cc
.	.	.	16ff
.	.	.	16ee
.	.	.	8f#
.	.	.	8g
=	=	=	=
8r	4c	4e	4g
8CC	.	.	.
8r	8r	8r	8e
8AA-	8c	8c	8f
8r	8r	8r	8.e
8GG	8B	8G	.
.	.	.	16e
=	=	=	=
8C#	8r	8r	8e
8r	8G#	8B	8e
8r	8r	8r	8e
8A	8c	8A	16c#
.	.	.	16a
8A	8A	8c	16f#
.	.	.	16e
8A	8A	8c	8f#
8G	8B	8d	8f
=	=	=	=
8G#	8B	8e	8g
8G	8c	8e	16a
.	.	.	16g
8A	8c	8f#	16a
.	.	.	16g
8G#	8B	8e	16b
.	.	.	16g#
8G	8d	8b	16b
.	.	.	16g
8r	8r	8r	16ff
.	.	.	16dd
8G	8d	8g#	16ee
.	.	.	16a
8r	8r	8r	16ff#
.	.	.	16ee
8G	8g	8g	16ee
.	.	.	16dd
8G	8g	8b	16gg
.	.	.	16aa
8G	8b	8f	16gg
.	.	.	16ff
8G	8g	8b	16dd
.	.	.	16b
=	=	=	=
8C	8e	8cc	4cc
8C	8e	8ee	.
8C	8e	8cc	8g
8C	8e	8cc	8cc
=	=	=	=
4FF	8d	4d	8cc
.	8c	.	8ee
8GG	8d	8b	8ff
=	=	=	=
8C	8a	8cc	8ee
8C	8c	8cc	8cc
8GG	8B	8d	8f
8GG	8B	8d	8f
=	=	=	=
4C	4E	4c	8e
.	.	.	16cc
.	.	.	16a
4r	4r	4r	8g
.	.	.	16cc
.	.	.	16ee
=	=	=	=
8CC	8r	8r	4.ee
8C	8e	8g	.
8C	8e	8g	.
8C	8e	8g	8ee
=	=	=	=
8D	8f	8f	8dd#
8G	16d	8f	16g
.	16f	.	16ee
8G	8r	8b	8dd
8C	8r	8r	8r
=	=	=	=
8E	2r	4e	2r
8C	.	.	.
8E	.	8b-	.
8E	.	8g	.
=	=	=	=
8D	2.r	4.a	4cc
8F	.	.	.
8D	.	.	8.d
8G	.	16f#	.
.	.	16g	.
4r	.	8g	8dd
.	8r	8r	16ff
.	.	.	16dd
=	=	=	=
4.r	16.F	4.r	16.dd
.	32c	.	32ee
.	8c	8f	8dd
.	8r	8r	8r
=	=	=	=
4F	4A	[4.c	4.ee
8G	8r	.	8dd
4r	8.F	.	8.dd
.	16B	16d	16ff
=	=	=	=
4AA	8c#	4.e	4ff
.	8f	.	.
4.r	8f	.	.
.	8e	.	8cc#
.	8d	.	8dd
.	8e	.	8cc
=	=	=	=
4F	4.a	8r	8dd
.	.	8a	8cc
8G	.	8g	8b
4.r	8d	8b	8.dd
.	32e	32f	.
.	32d	32f	.
=	=	=	=
16c]	8e	8e	8cc
2r	.	8r	8r
.	16B	16d	16gg
.	32c	32e	.
.	32c	32e	.
.	32d	32f	8gg
.	32e	32c	.
.	32c	32f#	.
.	32B	32c	.
4C	8c	8e	16cc
.	.	.	32b
.	.	.	32a
.	8f	8g	32f
.	.	.	32e
.	.	.	32g
.	.	.	32f
.	8r	16g	32e
.	.	.	32e
.	.	.	32f
.	.	.	32f
16gg	16g	8r	8r
16d	16f	.	.
8c	16e	8cc	8g
.	16e	.	.
8f	16BB	32a	8a
.	.	32f	.
16g	16e	16g	32b
.	16e	.	32b
.	16c	16e	32ee
.	.	.	32cc
8G	8B	8d	32b
.	.	.	32cc
.	.	.	32b
.	.	.	32dd
8c	8E	16g	24dd
.	.	16e	16cc
8F	16r	16r	16ff
.	16A	16d	16ff
8r	16B	16d	16ff
.	16f	16d	16dd
8E	16r	16r	16ff
.	16f	16d	16bb
=	=	=	=
4C	16e	16r	16gg
.	16e	16cc	32ff
.	.	.	32ee
.	16e	16cc	32ee
.	.	.	32cc#
.	16e	16cc	8cc
.	16G	16e	.
=	=	=	=
4FF	16d	8f	4a
.	16e	16g	.
.	16d	16f	.
.	16e	16g	.
8r	16d	16f	8r
.	16g	16g#	.
8EE	16g	16b	8gg
.	16a	16cc	.
4EE	16r	16r	8gg
.	16e-	16cc	.
.	16d	16b	16.ff
.	16b	16dd	.
=	=	=	=
16CC	16c	16ee	16r
32r	32G	16g	16ee
16C	16e	16g	4eee
16F	16f	16a	.
16F	16a	16cc	.
16F	16A	16cc	.
16E	16c	16cc	8ccc
16E	16c	16cc	.
16C	16e	16cc	4r
16F	16f	16dd	.
16F	16f	16dd	.
16D	16f	16dd	.
16F	16f	16cc	4aaa
16F#	16f	16a	16ccc
=	=	=	=
16F	16a	16cc	16ccc
16c	16f	16b	16ddd
16e	16g	16cc	16eee
16F	16f	16dd	16fff
16G	16g	16cc#	16ddd
16A	16a	16cc	16fff
16F	16a	16dd	16ddd
16A	16a	16cc	16ccc
16F	16a	16dd	16ddd
16F#	16a	16cc#	16ccc#
16F	16f#	16cc#	16ddd
16F	16f	16a	16ccc
=	=	=	=
16F	16f	16a-	16ddd
16F	16f	16cc	16aa
16G	16a-	16b-	16aa-
16F	16a-	16dd	16gg
16F#	16f	16ee-	16aa-
16F	16f	16dd	16aa-
16G	16g	16cc#	16ee-
16D-	16a	16cc	16ff
=	=	=	=
2G	16g	16b	16ee
.	16f	16b	16dd
.	16g	16b	16dd
.	16f	16d	16dd
.	16e	16c	16cc#
.	16c	16e	16ee
=	=	=	=
4r	4f	4.b	8ee
.	.	.	8aa
8E	8c	.	8cc
8D	8r	8r	8r
8r	8d	8f	8b
=	=	=	=
8D	[4B	4.d	4.g
8C	.	.	.
8C	4r	.	.
8C	.	8d#	16aa
.	.	.	16gg
=	=	=	=
8r	8r	8d	8ff
8D	8d	8A	8ff
8r	8r	8r	8ff
8D	8d	8f	8b
=	=	=	=
8D	8c	8f	8dd
8r	8r	8r	8dd
8G	8B	8d	8r
8r	8r	8r	16gg
.	.	.	16aa
8B	8d	8g	32b
.	.	.	16gg
=	=	=	=
8c	8c	8e	8aa
8r	8r	8r	16gg#
.	.	.	16aa
8c	8e	8a	16.gg#
.	.	.	32aa
=	=	=	=
8r	8r	8r	8ccc
8e	8G	8g	2r
8c	8c	8g	.
8c	8c	8a	.
8r	8r	8r	.
=	=	=	=
8c	8e	8a	16r
.	.	.	32ff#
.	.	.	32gg
8c	8e	8a	32ff#
.	.	.	32gg
.	.	.	32aa
.	.	.	32aa
8d	8f#	8a	32cc#
.	.	.	32b
.	.	.	32cc
.	.	.	32a
8d	8a	8f#	8r
8r	8r	8r	8gg
8r	8r	8r	8ff
=	=	=	=
8G	2G	2.f	2dd#
8d	.	.	.
8B	.	.	.
8B	32g	.	.
.	.	96ee	.
.	.	32dd	.
8BB	8r	8ff	.
=	=	=	=
8C	8r	8r	8A
8r	4e	4g	4cc
8C	.	.	.
8c	4r	8r	16a
.	.	.	16f
8c	.	8e	16e
.	.	.	16cc
8c	2A	4f	8dd
8r	.	.	8cc
=	=	=	=
4r	4r	4a	4d
==	==	==	==
*-	*-	*-	*-
